%YAML 1.1
%TAG !u! tag:unity3d.com,2011:
--- !u!114 &11400000
MonoBehaviour:
  m_ObjectHideFlags: 0
  m_CorrespondingSourceObject: {fileID: 0}
  m_PrefabInstance: {fileID: 0}
  m_PrefabAsset: {fileID: 0}
  m_GameObject: {fileID: 0}
  m_Enabled: 1
  m_EditorHideFlags: 0
  m_Script: {fileID: 11500000, guid: 13b75c95f34a00d4e8c04f76b73312e6, type: 3}
  m_Name: DetailAnimatedTile
  m_EditorClassIdentifier: 
  m_AnimatedSprites:
  - {fileID: 5500871050033689153, guid: f158df26e594d1b42b51eea9fe1b1984, type: 3}
  - {fileID: 3477309023556903391, guid: f158df26e594d1b42b51eea9fe1b1984, type: 3}
  - {fileID: 6371828779833682568, guid: f158df26e594d1b42b51eea9fe1b1984, type: 3}
  - {fileID: 5399509595125971511, guid: f158df26e594d1b42b51eea9fe1b1984, type: 3}
  m_MinSpeed: 1
  m_MaxSpeed: 1
  m_AnimationStartTime: 0
  m_AnimationStartFrame: 0
  m_TileColliderType: 0
